@startuml
set namespaceSeparator none

class "Platform" as platform {
  name : String
}

class "HWComponent" as hwcomponent {
  name : String
}

class "Sensor" as sensor {
}
class "Actuator" as actuator {
}
class "Computer" as computer {
  name : String
}
class "Memory" as memory {
  capacity : int
}
class "Processor" as processor {
  frequency : float
}
class "Bus" as bus {
  bandwidht : float
}
class "VirtualProcessor" as virtualprocessor {
  minor_frame : float
}

class "SwComponent" as swcomponent {
  name : String
}

class "RMC" as rmc {
}

class "RMU" as rmc {
}

class "OS" as os {
}

class "PDIRM" as pdirm {
}

hwcomponent -l-* "0..*" platform
sensor -u-|> hwcomponent
actuator -u-|> hwcomponent
computer -u-|> hwcomponent
memory -u-* "1..*" computer 
processor -u-* "1..*" computer 
bus -u-* "1..*" computer 
virtualprocessor -u-* "1..*" processor

swcomponent -r-* "0..*" platform
pdirm -u-|> swcomponent
rmc -u-|> swcomponent
rmu -u-|> swcomponent
os -u-|> swcomponent
@enduml
