@startuml Framework Sequence Diagram
skinparam sequenceArrowThickness 2
skinparam roundcorner 20
skinparam maxmessagesize 60
skinparam sequenceParticipant underline

actor "System Integrator" as Designer
participant "Main" as main
participant "AllocationAlgorithm" as allocation
participant "SchedulabilityAnalysis" as schedulability
participant "SystemState" as state
participant "SystemReconfigurationGraph" as reconfiguration


Designer -> main: Applications, Platform, Chosen Allocation Algorithm
activate main

loop for all possible platform failure modes
    main -> allocation: run(Applications,Platform)
    activate allocation
    allocation --> main: Platform


    alt Successful or Degraded case
        main -> schedulability: is_schedulable(Platform)
        activate schedulability
        schedulability --> main: SchedulabilityStatus
        

        alt Successful case
            main -> state: add_edge(SystemState(Platform))  
        end
    end
end

main -> reconfiguration: root_state
activate reconfiguration
reconfiguration --> main: reconfiguration graph
main --> Designer: reconfiguration graph, system configuration


@enduml